…
LNToutput
#> Object of class 'LNToutput':
#> 1 articles
#> 7 paragraphs
#> # A tibble: 1 × 11
#>      ID Source_File    Newspaper  Date       Length  Section Author  
#>   <int> <chr>          <chr>      <date>     <chr>   <chr>   <chr>   
#> 1     9 SampleFile_20… Sunday Mi… 2010-01-10 446 wo… NEWS; … Ross Ih…
#> # … with 4 more variables: Edition <chr>, Headline <chr>,
#> #   Graphic <lgl>, stats <named list>
#> # A tibble: 1 × 2
#>      ID Article                                                      
#>   <int> <chr>                                                        
#> 1     9 R is a programming language and free software environment fo…
#> # A tibble: 7 × 3
#>   Art_ID Par_ID Paragraph                                            
#>    <int>  <int> <chr>                                                
#> 1      9     67 R is a programming language and free software enviro…
#> 2      9     68 R is a GNU package. The source code for the R softwa…
#> 3      9     69 R is an implementation of the S programming language…
#> 4      9     70 R was created by Ross Ihaka and Robert Gentleman at …
#> 5      9     71 R and its libraries implement a wide variety of stat…
#> 6      9     72 Another strength of R is static graphics, which can …
#> # … with 1 more row
```
…
